{
  "swagger" : "2.0",
  "info" : {
    "description" : "Business logic API for Minutes system",
    "version" : "1.9",
    "title" : "Minutes API",
    "license" : {
      "name" : "Page Layout",
      "url" : "https://docs.google.com/document/d/1xy1NOMvQKXTDnxDTDcLLJsxcE_R4UphX26UXMr2asY4/edit?usp=sharing"
    }
  },
  "host" : "10.178.7.178",
  "basePath" : "/minutes-api",
  "tags" : [ {
    "name" : "committees"
  }, {
    "name" : "meetings"
  }, {
    "name" : "tasks"
  }, {
    "name" : "documents"
  }, {
    "name" : "versions"
  }, {
    "name" : "comments"
  }, {
    "name" : "users"
  }, {
    "name" : "domains"
  } ],
  "schemes" : [ "https" ],
  "consumes" : [ "text/plain" ],
  "produces" : [ "text/plain" ],
  "paths" : {
    "/tasks" : {
      "get" : {
        "tags" : [ "tasks" ],
        "summary" : "ALL: get all my tasks (optional filter by status) [personal-main]",
        "description" : "Returns all tasks assigned or managed by me. Filter by status if necessary.",
        "operationId" : "getTasks",
        "parameters" : [ {
          "name" : "task_status",
          "in" : "query",
          "description" : "status code, not id",
          "required" : false,
          "type" : "string"
        } ],
        "responses" : {
          "200" : {
            "description" : "success",
            "schema" : {
              "type" : "array",
              "items" : {
                "$ref" : "#/definitions/TaskCard"
              }
            }
          }
        }
      },
      "post" : {
        "tags" : [ "tasks" ],
        "summary" : "ALL: add a new task to manage [personal-main]",
        "description" : "Popup window to add a task.",
        "operationId" : "addTask",
        "parameters" : [ {
          "in" : "body",
          "name" : "task",
          "required" : true,
          "schema" : {
            "$ref" : "#/definitions/TaskCard"
          }
        } ],
        "responses" : {
          "200" : {
            "description" : "success",
            "schema" : {
              "$ref" : "#/definitions/TaskCard"
            }
          }
        }
      }
    },
    "/tasks/{task_id}" : {
      "post" : {
        "tags" : [ "tasks" ],
        "summary" : "TM (Task Manager): change the task [personal-main]",
        "operationId" : "changeTask",
        "parameters" : [ {
          "name" : "task_id",
          "in" : "path",
          "required" : true,
          "type" : "integer"
        }, {
          "in" : "body",
          "name" : "task",
          "required" : true,
          "schema" : {
            "$ref" : "#/definitions/TaskCard"
          }
        } ],
        "responses" : {
          "200" : {
            "description" : "success",
            "schema" : {
              "$ref" : "#/definitions/TaskCard"
            }
          },
          "400" : {
            "description" : "no such task"
          }
        }
      },
      "delete" : {
        "tags" : [ "tasks" ],
        "summary" : "TM: remove the task [personal-main]",
        "description" : "Changes the status of the task on \"deleted\"",
        "operationId" : "removeTask",
        "parameters" : [ {
          "name" : "task_id",
          "in" : "path",
          "required" : true,
          "type" : "integer"
        } ],
        "responses" : {
          "200" : {
            "description" : "success"
          },
          "400" : {
            "description" : "no such task"
          }
        }
      }
    },
    "/tasks/{task_id}/propose" : {
      "post" : {
        "tags" : [ "tasks" ],
        "summary" : "TA (Task Assignee): propose a task change for an assigned [to me] task [personal-main]",
        "description" : "This operation changes only proposed status, report, and checkup date. Other fields are ignored. This operation is used on a task only if TM != TA.",
        "operationId" : "proposeTaskChange",
        "parameters" : [ {
          "name" : "task_id",
          "in" : "path",
          "required" : true,
          "type" : "integer"
        }, {
          "in" : "body",
          "name" : "task",
          "required" : false,
          "schema" : {
            "$ref" : "#/definitions/TaskCard"
          }
        } ],
        "responses" : {
          "200" : {
            "description" : "success",
            "schema" : {
              "$ref" : "#/definitions/TaskCard"
            }
          },
          "400" : {
            "description" : "no such task"
          }
        }
      }
    },
    "/tasks/{task_id}/refuse" : {
      "post" : {
        "tags" : [ "tasks" ],
        "summary" : "CM: refuse a proposed task by it's committee [committee-main-task]",
        "description" : "Remove the link from the task to the committee and leave only managed_by. Shown as an icon in task line.",
        "operationId" : "refuseTask",
        "parameters" : [ {
          "name" : "task_id",
          "in" : "path",
          "required" : true,
          "type" : "integer"
        } ],
        "responses" : {
          "200" : {
            "description" : "success",
            "schema" : {
              "$ref" : "#/definitions/TaskCard"
            }
          },
          "400" : {
            "description" : "no such task"
          }
        }
      }
    },
    "/tasks/{task_id}/comments" : {
      "get" : {
        "tags" : [ "tasks" ],
        "summary" : "ALL: get all comments of the task, including all subcomments [personal-right]",
        "operationId" : "getTaskComments",
        "parameters" : [ {
          "name" : "task_id",
          "in" : "path",
          "required" : true,
          "type" : "integer"
        } ],
        "responses" : {
          "200" : {
            "description" : "success",
            "schema" : {
              "type" : "array",
              "items" : {
                "$ref" : "#/definitions/CommentCard"
              }
            }
          },
          "400" : {
            "description" : "no such task"
          }
        }
      }
    },
    "/tasks/{task_id}/documents" : {
      "get" : {
        "tags" : [ "tasks" ],
        "summary" : "ALL: get all documents of the task [personal-main]",
        "operationId" : "getDocuments",
        "parameters" : [ {
          "name" : "task_id",
          "in" : "path",
          "required" : true,
          "type" : "integer"
        } ],
        "responses" : {
          "200" : {
            "description" : "success",
            "schema" : {
              "type" : "array",
              "items" : {
                "$ref" : "#/definitions/DocumentCard"
              }
            }
          },
          "400" : {
            "description" : "no such task"
          }
        }
      },
      "post" : {
        "tags" : [ "tasks" ],
        "summary" : "TM,TA: add a new document to the task [personal-main]",
        "operationId" : "addDocument",
        "parameters" : [ {
          "name" : "task_id",
          "in" : "path",
          "required" : true,
          "type" : "integer"
        }, {
          "in" : "body",
          "name" : "document",
          "required" : false,
          "schema" : {
            "$ref" : "#/definitions/DocumentCard"
          }
        } ],
        "responses" : {
          "200" : {
            "description" : "success",
            "schema" : {
              "$ref" : "#/definitions/DocumentCard"
            }
          },
          "400" : {
            "description" : "no such task"
          }
        }
      }
    },
    "/documents/{doc_id}" : {
      "get" : {
        "tags" : [ "documents" ],
        "summary" : "ALL: get a file of the last document version [personal-main]",
        "description" : "Download the last version file with the appropriate content-type.",
        "operationId" : "getFileDocument",
        "parameters" : [ {
          "name" : "doc_id",
          "in" : "path",
          "required" : true,
          "type" : "integer"
        } ],
        "responses" : {
          "200" : {
            "description" : "success"
          },
          "400" : {
            "description" : "no such document"
          }
        }
      },
      "post" : {
        "tags" : [ "documents" ],
        "summary" : "TM,TA: change a document's name [personal-main]",
        "operationId" : "changeDocument",
        "parameters" : [ {
          "name" : "doc_id",
          "in" : "path",
          "required" : true,
          "type" : "integer"
        }, {
          "in" : "body",
          "name" : "document",
          "required" : false,
          "schema" : {
            "$ref" : "#/definitions/DocumentCard"
          }
        } ],
        "responses" : {
          "200" : {
            "description" : "success",
            "schema" : {
              "$ref" : "#/definitions/DocumentCard"
            }
          },
          "400" : {
            "description" : "no such document"
          }
        }
      },
      "delete" : {
        "tags" : [ "documents" ],
        "summary" : "TM,TA: remove a document from a task [personal-main]",
        "operationId" : "removeDocument",
        "parameters" : [ {
          "name" : "doc_id",
          "in" : "path",
          "required" : true,
          "type" : "integer"
        } ],
        "responses" : {
          "200" : {
            "description" : "success"
          },
          "400" : {
            "description" : "no such document"
          }
        }
      }
    },
    "/documents/{doc_id}/versions" : {
      "get" : {
        "tags" : [ "documents" ],
        "summary" : "ALL: get all versions of the document [personal-main]",
        "operationId" : "getDocumentVersions",
        "parameters" : [ {
          "name" : "doc_id",
          "in" : "path",
          "required" : true,
          "type" : "integer"
        } ],
        "responses" : {
          "200" : {
            "description" : "success",
            "schema" : {
              "type" : "array",
              "items" : {
                "$ref" : "#/definitions/VersionCard"
              }
            }
          },
          "400" : {
            "description" : "no such document"
          }
        }
      },
      "post" : {
        "tags" : [ "documents" ],
        "summary" : "TM,TA: add a new file as a version of a document [personal-main]",
        "operationId" : "addFileVersion",
        "parameters" : [ {
          "name" : "doc_id",
          "in" : "path",
          "required" : true,
          "type" : "integer"
        }, {
          "in" : "body",
          "name" : "version",
          "required" : false,
          "schema" : {
            "$ref" : "#/definitions/VersionCard"
          }
        } ],
        "responses" : {
          "200" : {
            "description" : "success",
            "schema" : {
              "$ref" : "#/definitions/VersionCard"
            }
          },
          "400" : {
            "description" : "no such document"
          }
        }
      }
    },
    "/versions/{doc_ver_id}" : {
      "get" : {
        "tags" : [ "versions" ],
        "summary" : "ALL: get a file version [personal-main]",
        "description" : "Download the file with the appropriate content-type.",
        "operationId" : "getFileVersion",
        "parameters" : [ {
          "name" : "doc_ver_id",
          "in" : "path",
          "required" : true,
          "type" : "integer"
        } ],
        "responses" : {
          "200" : {
            "description" : "success"
          },
          "400" : {
            "description" : "no such version"
          }
        }
      },
      "delete" : {
        "tags" : [ "versions" ],
        "summary" : "TM,TA: remove a file version from a document [personal-main]",
        "operationId" : "removeFileVersion",
        "parameters" : [ {
          "name" : "doc_ver_id",
          "in" : "path",
          "required" : true,
          "type" : "integer"
        } ],
        "responses" : {
          "200" : {
            "description" : "success"
          },
          "400" : {
            "description" : "no such version"
          }
        }
      }
    },
    "/committees" : {
      "get" : {
        "tags" : [ "committees" ],
        "summary" : "ALL: get committees (optional filter by status) [system-main]",
        "operationId" : "getCommittees",
        "parameters" : [ {
          "name" : "committee_status",
          "in" : "query",
          "description" : "status code, not id",
          "required" : false,
          "type" : "string"
        }, {
          "name" : "new_para",
          "in" : "query",
          "required" : false,
          "type" : "string"
        } ],
        "responses" : {
          "200" : {
            "description" : "success",
            "schema" : {
              "type" : "array",
              "items" : {
                "$ref" : "#/definitions/CommitteeCard"
              }
            }
          }
        }
      },
      "post" : {
        "tags" : [ "committees" ],
        "summary" : "M (Manager): propose a new committee  [system-main]",
        "description" : "A user created a committee becomes it's master and can change it in the future. Popup window. Attendance is set here too.",
        "operationId" : "addCommittee",
        "parameters" : [ {
          "in" : "body",
          "name" : "cmt",
          "required" : false,
          "schema" : {
            "$ref" : "#/definitions/CommitteeCard"
          }
        } ],
        "responses" : {
          "200" : {
            "description" : "success",
            "schema" : {
              "$ref" : "#/definitions/CommitteeCard"
            }
          }
        }
      }
    },
    "/committees/{cmt_id}" : {
      "get" : {
        "tags" : [ "committees" ],
        "summary" : "ALL: get the committee [committee-header]",
        "operationId" : "getCommittee",
        "parameters" : [ {
          "name" : "cmt_id",
          "in" : "path",
          "required" : true,
          "type" : "integer"
        } ],
        "responses" : {
          "200" : {
            "description" : "success",
            "schema" : {
              "type" : "array",
              "items" : {
                "$ref" : "#/definitions/CommitteeCard"
              }
            }
          },
          "400" : {
            "description" : "no such committee"
          }
        }
      },
      "post" : {
        "tags" : [ "committees" ],
        "summary" : "CM (Committee Master): change a committee [committee-header]",
        "description" : "This is a popup window. Attendance is changed here too.",
        "operationId" : "changeCommittee",
        "parameters" : [ {
          "name" : "cmt_id",
          "in" : "path",
          "required" : true,
          "type" : "integer"
        }, {
          "in" : "body",
          "name" : "cmt",
          "required" : false,
          "schema" : {
            "$ref" : "#/definitions/CommitteeCard"
          }
        } ],
        "responses" : {
          "200" : {
            "description" : "success",
            "schema" : {
              "$ref" : "#/definitions/CommitteeCard"
            }
          },
          "400" : {
            "description" : "no such committee mastered by the current user"
          }
        }
      },
      "delete" : {
        "tags" : [ "committees" ],
        "summary" : "CM (Committee Master): mark a committee as removed [committee-header]",
        "operationId" : "removeCommittee",
        "parameters" : [ {
          "name" : "cmt_id",
          "in" : "path",
          "required" : true,
          "type" : "integer"
        } ],
        "responses" : {
          "200" : {
            "description" : "success"
          },
          "400" : {
            "description" : "no such committee mastered by the current user"
          }
        }
      }
    },
    "/committees/{cmt_id}/tasks" : {
      "get" : {
        "tags" : [ "committees" ],
        "summary" : "ALL: get all active tasks of the committee [committee-main]",
        "description" : "All active tasks of the committee. They are to be shown for non-finalized meetings with the icon to add/remove.",
        "operationId" : "getCommitteeTasks",
        "parameters" : [ {
          "name" : "cmt_id",
          "in" : "path",
          "required" : true,
          "type" : "integer"
        } ],
        "responses" : {
          "200" : {
            "description" : "success",
            "schema" : {
              "type" : "array",
              "items" : {
                "$ref" : "#/definitions/TaskCard"
              }
            }
          },
          "400" : {
            "description" : "no such committee"
          }
        }
      },
      "post" : {
        "tags" : [ "committees" ],
        "summary" : "M: propose a new task for a commitee; CM: create a new task in the committee [committee-main]",
        "description" : "Both managed_by and link to the committee are present.",
        "operationId" : "proposeTask",
        "parameters" : [ {
          "name" : "cmt_id",
          "in" : "path",
          "required" : true,
          "type" : "integer"
        }, {
          "in" : "body",
          "name" : "task",
          "required" : true,
          "schema" : {
            "$ref" : "#/definitions/TaskCard"
          }
        } ],
        "responses" : {
          "200" : {
            "description" : "success",
            "schema" : {
              "$ref" : "#/definitions/TaskCard"
            }
          },
          "400" : {
            "description" : "no such committee"
          },
          "409" : {
            "description" : "the current user has no role M (and CM as a result too)"
          }
        }
      }
    },
    "/committees/{cmt_id}/meetings" : {
      "get" : {
        "tags" : [ "committees" ],
        "summary" : "ALL: get all meetings of the committee [committee-right]",
        "description" : "All the meetings of the committee.",
        "operationId" : "getMeetings",
        "parameters" : [ {
          "name" : "cmt_id",
          "in" : "path",
          "required" : true,
          "type" : "integer"
        } ],
        "responses" : {
          "200" : {
            "description" : "success",
            "schema" : {
              "type" : "array",
              "items" : {
                "$ref" : "#/definitions/MeetingCard"
              }
            }
          },
          "400" : {
            "description" : "no such committee"
          }
        }
      }
    },
    "/meetings" : {
      "post" : {
        "tags" : [ "meetings" ],
        "summary" : "CM: start a new meeting for the committee [committee-header]",
        "description" : "This is a popup window. Presence is set here too.",
        "operationId" : "startMeeting",
        "parameters" : [ {
          "in" : "body",
          "name" : "meeting",
          "required" : true,
          "schema" : {
            "$ref" : "#/definitions/MeetingCard"
          }
        } ],
        "responses" : {
          "200" : {
            "description" : "success"
          },
          "400" : {
            "description" : "no such committee"
          }
        }
      }
    },
    "/meetings/{meeting_id}" : {
      "get" : {
        "tags" : [ "meetings" ],
        "summary" : "CM: get the meeting [committee-right]",
        "operationId" : "getMeeting",
        "parameters" : [ {
          "name" : "meeting_id",
          "in" : "path",
          "required" : true,
          "type" : "integer"
        } ],
        "responses" : {
          "200" : {
            "description" : "success",
            "schema" : {
              "type" : "array",
              "items" : {
                "$ref" : "#/definitions/MeetingCard"
              }
            }
          },
          "400" : {
            "description" : "no such meeting"
          }
        }
      },
      "post" : {
        "tags" : [ "meetings" ],
        "summary" : "CM: change a meeting [committee-right-meeting]",
        "description" : "This is a popup window. Presence is changed here too. Shown as an icon in the meeting line.",
        "operationId" : "changeMeeting",
        "parameters" : [ {
          "name" : "meeting_id",
          "in" : "path",
          "required" : true,
          "type" : "integer"
        }, {
          "in" : "body",
          "name" : "meeting",
          "required" : false,
          "schema" : {
            "$ref" : "#/definitions/MeetingCard"
          }
        } ],
        "responses" : {
          "200" : {
            "description" : "success",
            "schema" : {
              "$ref" : "#/definitions/MeetingCard"
            }
          },
          "400" : {
            "description" : "no such meeting"
          }
        }
      },
      "delete" : {
        "tags" : [ "meetings" ],
        "summary" : "CM: mark a meeting as removed [committee-right-meeting]",
        "description" : "Only meetings without added tasks can be removed. Shown as an icon in the meeting line.",
        "operationId" : "removeMeeting",
        "parameters" : [ {
          "name" : "meeting_id",
          "in" : "path",
          "required" : true,
          "type" : "integer"
        } ],
        "responses" : {
          "200" : {
            "description" : "success"
          },
          "400" : {
            "description" : "no such meeting"
          }
        }
      }
    },
    "/meetings/{meeting_id}/tasks" : {
      "get" : {
        "tags" : [ "meetings" ],
        "summary" : "ALL: get all tasks accepted into the meeting [committee-main]",
        "description" : "All tasks [task changes actually] of the meeting. It is used to show tasks of the finalized meetings.",
        "operationId" : "getMeetingTasks",
        "parameters" : [ {
          "name" : "meeting_id",
          "in" : "path",
          "required" : true,
          "type" : "integer"
        } ],
        "responses" : {
          "200" : {
            "description" : "success",
            "schema" : {
              "type" : "array",
              "items" : {
                "$ref" : "#/definitions/TaskCard"
              }
            }
          },
          "400" : {
            "description" : "no such meeting"
          }
        }
      }
    },
    "/meetings/{meeting_id}/accept_task" : {
      "post" : {
        "tags" : [ "meetings" ],
        "summary" : "CM: accept the task to the meeting protocol in the current state [committee-main-task]",
        "description" : "The operation creates a task change in the meeting. UI shows the task as considered and accepted. Shown as an icon on a task line.",
        "operationId" : "acceptTask",
        "parameters" : [ {
          "name" : "meeting_id",
          "in" : "path",
          "required" : true,
          "type" : "integer"
        }, {
          "name" : "task_id",
          "in" : "query",
          "required" : true,
          "type" : "integer"
        } ],
        "responses" : {
          "200" : {
            "description" : "success",
            "schema" : {
              "$ref" : "#/definitions/TaskCard"
            }
          },
          "400" : {
            "description" : "no such active task"
          },
          "409" : {
            "description" : "no such meeting"
          }
        }
      }
    },
    "/meetings/{meeting_id}/unaccept_task" : {
      "post" : {
        "tags" : [ "meetings" ],
        "summary" : "CM: unaccept the task from the meeting protocol [committee-main-task]",
        "description" : "Removes the existing task change from the meeting. UI shows the task as before acceptance. Shown as an icon on a task line.",
        "operationId" : "unacceptTask",
        "parameters" : [ {
          "name" : "meeting_id",
          "in" : "path",
          "required" : true,
          "type" : "integer"
        }, {
          "name" : "task_id",
          "in" : "query",
          "required" : true,
          "type" : "integer"
        } ],
        "responses" : {
          "200" : {
            "description" : "success",
            "schema" : {
              "$ref" : "#/definitions/TaskCard"
            }
          },
          "400" : {
            "description" : "no such active task"
          },
          "409" : {
            "description" : "no such meeting"
          }
        }
      }
    },
    "/meetings/{meeting_id}/finalize" : {
      "post" : {
        "tags" : [ "meetings" ],
        "summary" : "CM: finalize the specific meeting [committee-right-meeting]",
        "description" : "A meeting can be finilized only if it is not finilized yet. Shown as an icon on the meeting.",
        "operationId" : "finalizeMeeting",
        "parameters" : [ {
          "name" : "meeting_id",
          "in" : "path",
          "required" : true,
          "type" : "integer"
        } ],
        "responses" : {
          "200" : {
            "description" : "success"
          },
          "400" : {
            "description" : "no such meeting"
          }
        }
      }
    },
    "/meetings/{meeting_id}/reopen" : {
      "post" : {
        "tags" : [ "meetings" ],
        "summary" : "CM: reopen the specific meeting [committee-right-meeting]",
        "description" : "The meeting can be reopened only if it is already finilized. Shown as an icon on the meeting.",
        "operationId" : "reopenMeeting",
        "parameters" : [ {
          "name" : "meeting_id",
          "in" : "path",
          "required" : true,
          "type" : "integer"
        } ],
        "responses" : {
          "200" : {
            "description" : "success"
          },
          "400" : {
            "description" : "no such meeting"
          }
        }
      }
    },
    "/meetings/{meeting_id}/include_comment" : {
      "post" : {
        "tags" : [ "meetings" ],
        "summary" : "CM: add a pre-existing comment to the meeting protocol [committee-main-comment]",
        "description" : "Links the specific comment to the current open meeting of the committee. Shown as an icon on the comment.",
        "operationId" : "includeComment",
        "parameters" : [ {
          "name" : "meeting_id",
          "in" : "path",
          "required" : true,
          "type" : "integer"
        }, {
          "name" : "comm_id",
          "in" : "query",
          "required" : true,
          "type" : "integer"
        } ],
        "responses" : {
          "200" : {
            "description" : "success"
          },
          "400" : {
            "description" : "no such comment"
          },
          "409" : {
            "description" : "no such meeting"
          }
        }
      }
    },
    "/meetings/{meeting_id}/exclude_comment" : {
      "post" : {
        "tags" : [ "meetings" ],
        "summary" : "CM: remove a comment from the meeting protocol it is in [committee-main-comment]",
        "description" : "Unlinks the specific comment from its meeting. Shown as an icon on the comment.",
        "operationId" : "excludeComment",
        "parameters" : [ {
          "name" : "meeting_id",
          "in" : "path",
          "required" : true,
          "type" : "integer"
        }, {
          "name" : "comm_id",
          "in" : "query",
          "required" : true,
          "type" : "integer"
        } ],
        "responses" : {
          "200" : {
            "description" : "success"
          },
          "400" : {
            "description" : "no such comment"
          }
        }
      }
    },
    "/comments" : {
      "get" : {
        "tags" : [ "comments" ],
        "summary" : "ALL: get last N comments [system-right]",
        "operationId" : "getComments",
        "parameters" : [ {
          "name" : "n",
          "in" : "query",
          "required" : false,
          "type" : "integer"
        } ],
        "responses" : {
          "200" : {
            "description" : "success",
            "schema" : {
              "type" : "array",
              "items" : {
                "$ref" : "#/definitions/CommentCard"
              }
            }
          }
        }
      },
      "post" : {
        "tags" : [ "comments" ],
        "summary" : "ALL: add a new comment or a subcomment to the task [personal-right]",
        "description" : "Cycles are not allowed. Comment date is ignored and taken at the server-side.",
        "operationId" : "addComment",
        "parameters" : [ {
          "in" : "body",
          "name" : "comment",
          "required" : false,
          "schema" : {
            "$ref" : "#/definitions/CommentCard"
          }
        } ],
        "responses" : {
          "200" : {
            "description" : "success",
            "schema" : {
              "$ref" : "#/definitions/CommentCard"
            }
          },
          "400" : {
            "description" : "no such task"
          }
        }
      }
    },
    "/comments/{comm_id}" : {
      "post" : {
        "tags" : [ "comments" ],
        "summary" : "CA: change the comment [personal-right]",
        "operationId" : "changeComment",
        "parameters" : [ {
          "name" : "comm_id",
          "in" : "path",
          "required" : true,
          "type" : "integer"
        }, {
          "in" : "body",
          "name" : "comm_text",
          "required" : true,
          "schema" : {
            "$ref" : "#/definitions/Text"
          }
        } ],
        "responses" : {
          "200" : {
            "description" : "success",
            "schema" : {
              "$ref" : "#/definitions/Text"
            }
          },
          "400" : {
            "description" : "no such comment"
          }
        }
      },
      "delete" : {
        "tags" : [ "comments" ],
        "summary" : "CA (Comment Author): remove the comment [personal-right]",
        "operationId" : "removeComment",
        "parameters" : [ {
          "name" : "comm_id",
          "in" : "path",
          "required" : true,
          "type" : "integer"
        } ],
        "responses" : {
          "200" : {
            "description" : "success"
          },
          "400" : {
            "description" : "no such comment"
          }
        }
      }
    },
    "/comments/{comm_id}/report" : {
      "post" : {
        "tags" : [ "comments" ],
        "summary" : "CM: add the comment to the task's report [committee-main-task]",
        "description" : "Contatenates the comment with the current contents of report field for all languages. Shown as an icon in the task line.",
        "operationId" : "reportComment",
        "parameters" : [ {
          "name" : "comm_id",
          "in" : "path",
          "required" : true,
          "type" : "integer"
        } ],
        "responses" : {
          "200" : {
            "description" : "success"
          },
          "400" : {
            "description" : "no such task"
          }
        }
      }
    },
    "/users" : {
      "get" : {
        "tags" : [ "users" ],
        "summary" : "ALL: get all users [committee-header]",
        "operationId" : "getUsers",
        "parameters" : [ ],
        "responses" : {
          "200" : {
            "description" : "success",
            "examples" : {
              "application/json" : [ {
                "user_id" : 1,
                "user_name" : "Andrew Butko",
                "user_nick" : "ABT"
              }, {
                "user_id" : 2,
                "user_name" : "Juri Kamenuk",
                "user_nick" : "JKA"
              }, {
                "user_id" : 3,
                "user_name" : "Juri Bokachev",
                "user_nick" : "YUB"
              }, {
                "user_id" : 4,
                "user_name" : "Christian J. Weinreich",
                "user_nick" : "CWE"
              } ]
            },
            "schema" : {
              "type" : "array",
              "items" : {
                "$ref" : "#/definitions/UserCard"
              }
            }
          }
        }
      }
    },
    "/users/{user_id}" : {
      "get" : {
        "tags" : [ "users" ],
        "summary" : "AU (Authorized User): get a specific user data [menu] ",
        "description" : "A user can request only his own data.",
        "operationId" : "getUser",
        "parameters" : [ {
          "name" : "user_id",
          "in" : "path",
          "required" : true,
          "type" : "integer"
        } ],
        "responses" : {
          "200" : {
            "description" : "success",
            "examples" : {
              "application/json" : [ {
                "user_id" : 1,
                "user_name" : "Andrew Butko",
                "user_nick" : "ABT"
              } ]
            },
            "schema" : {
              "$ref" : "#/definitions/UserCard"
            }
          }
        }
      },
      "post" : {
        "tags" : [ "users" ],
        "summary" : "AU: change personal information [menu]",
        "description" : "A user can change only his own data. Popup window is used for that.",
        "operationId" : "changeUser",
        "parameters" : [ {
          "name" : "user_id",
          "in" : "path",
          "required" : true,
          "type" : "integer"
        }, {
          "in" : "body",
          "name" : "user",
          "required" : true,
          "schema" : {
            "$ref" : "#/definitions/UserCard"
          }
        } ],
        "responses" : {
          "200" : {
            "description" : "success",
            "schema" : {
              "$ref" : "#/definitions/UserCard"
            }
          },
          "400" : {
            "description" : "no such user"
          }
        }
      }
    },
    "/domains" : {
      "get" : {
        "tags" : [ "domains" ],
        "summary" : "ALL: get all minutes domains [all] ",
        "operationId" : "getDomains",
        "parameters" : [ ],
        "responses" : {
          "200" : {
            "description" : "success",
            "schema" : {
              "type" : "array",
              "items" : {
                "$ref" : "#/definitions/Domain"
              }
            }
          }
        }
      }
    }
  },
  "definitions" : {
    "Text" : {
      "type" : "array",
      "description" : "Internationalized text translated to different languages",
      "items" : {
        "$ref" : "#/definitions/Line"
      }
    },
    "Line" : {
      "properties" : {
        "lang_code" : {
          "type" : "string",
          "example" : "RU",
          "enum" : [ "RU", "EN", "DK" ]
        },
        "string" : {
          "type" : "string",
          "example" : "Комментарий"
        }
      },
      "description" : "One international string value for a specific language"
    },
    "TaskCard" : {
      "properties" : {
        "task_id" : {
          "type" : "integer",
          "example" : 1
        },
        "task_type" : {
          "type" : "integer",
          "example" : 10
        },
        "task_code" : {
          "type" : "string",
          "example" : "325"
        },
        "task_status" : {
          "type" : "integer",
          "example" : 1
        },
        "task_proposed_status" : {
          "type" : "integer",
          "example" : 1
        },
        "cmt_id" : {
          "type" : "integer",
          "example" : 1
        },
        "assigned_to" : {
          "type" : "integer",
          "example" : 1
        },
        "managed_by" : {
          "type" : "integer",
          "example" : 4
        },
        "parent_task_id" : {
          "type" : "integer",
          "example" : 5
        },
        "task_checkup" : {
          "type" : "string",
          "format" : "date-time"
        },
        "task_deadline" : {
          "type" : "string",
          "format" : "date-time"
        },
        "task_item_num" : {
          "type" : "integer",
          "example" : 1
        },
        "task_name" : {
          "$ref" : "#/definitions/Text"
        },
        "task_description" : {
          "$ref" : "#/definitions/Text"
        },
        "task_report" : {
          "$ref" : "#/definitions/Text"
        },
        "task_resolution" : {
          "$ref" : "#/definitions/Text"
        },
        "task_changed" : {
          "type" : "string",
          "format" : "date-time"
        }
      }
    },
    "CommentCard" : {
      "properties" : {
        "comm_id" : {
          "type" : "integer",
          "example" : 1
        },
        "task_id" : {
          "type" : "integer"
        },
        "user_id" : {
          "type" : "integer"
        },
        "meeting_id" : {
          "type" : "integer"
        },
        "comment_isreply_on" : {
          "type" : "integer"
        },
        "comm_dt" : {
          "type" : "string",
          "format" : "date-time"
        },
        "comment_text" : {
          "$ref" : "#/definitions/Text"
        },
        "cmt_id" : {
          "type" : "integer"
        }
      },
      "description" : "a comment to a task"
    },
    "CommitteeCard" : {
      "properties" : {
        "cmt_id" : {
          "type" : "integer",
          "example" : 1
        },
        "cmt_code" : {
          "type" : "string",
          "example" : "QUALITY"
        },
        "cmt_status" : {
          "type" : "integer",
          "example" : 1
        },
        "cmt_pattern" : {
          "type" : "string"
        },
        "cmt_next_dt" : {
          "type" : "string",
          "format" : "date-time"
        },
        "cmt_location" : {
          "type" : "string"
        },
        "cmt_name" : {
          "$ref" : "#/definitions/Text"
        },
        "cmt_topic" : {
          "$ref" : "#/definitions/Text"
        },
        "cmt_announcement" : {
          "$ref" : "#/definitions/Text"
        },
        "attendances" : {
          "type" : "array",
          "items" : {
            "$ref" : "#/definitions/AttendanceCard"
          }
        }
      }
    },
    "AttendanceCard" : {
      "properties" : {
        "user_id" : {
          "type" : "integer"
        },
        "member_role" : {
          "type" : "integer"
        },
        "email_notification" : {
          "type" : "boolean"
        }
      },
      "description" : "attendance to a committee"
    },
    "MeetingCard" : {
      "properties" : {
        "meeting_id" : {
          "type" : "integer",
          "example" : 1
        },
        "cmt_id" : {
          "type" : "integer"
        },
        "meeting_status" : {
          "type" : "integer",
          "example" : 1
        },
        "moderator_id" : {
          "type" : "integer"
        },
        "meeting_start_dt" : {
          "type" : "string",
          "format" : "date-time"
        },
        "meeting_fin_dt" : {
          "type" : "string",
          "format" : "date-time"
        },
        "meeting_notes" : {
          "$ref" : "#/definitions/Text"
        },
        "presenses" : {
          "type" : "array",
          "items" : {
            "$ref" : "#/definitions/PresenceCard"
          }
        }
      }
    },
    "PresenceCard" : {
      "properties" : {
        "user_id" : {
          "type" : "integer"
        },
        "pres_type" : {
          "type" : "integer"
        }
      },
      "description" : "presence to a meeting"
    },
    "DocumentCard" : {
      "properties" : {
        "doc_id" : {
          "type" : "integer",
          "example" : 1
        },
        "task_id" : {
          "type" : "integer"
        },
        "doc_type" : {
          "type" : "integer"
        },
        "doc_stat" : {
          "type" : "integer"
        },
        "doc_source_doc" : {
          "type" : "integer"
        },
        "doc_name" : {
          "$ref" : "#/definitions/Text"
        },
        "doc_notes" : {
          "$ref" : "#/definitions/Text"
        }
      }
    },
    "VersionCard" : {
      "properties" : {
        "docver_id" : {
          "type" : "integer"
        },
        "user_id" : {
          "type" : "integer"
        },
        "doc_id" : {
          "type" : "integer"
        },
        "file_id" : {
          "type" : "integer"
        },
        "docver_num" : {
          "type" : "string"
        },
        "docver_status" : {
          "type" : "integer"
        },
        "docver_fname" : {
          "type" : "string"
        },
        "docver_dt" : {
          "type" : "string",
          "format" : "date-time"
        },
        "docver_notes" : {
          "$ref" : "#/definitions/Text"
        }
      }
    },
    "UserCard" : {
      "properties" : {
        "user_id" : {
          "type" : "integer",
          "example" : 1
        },
        "user_ad_id" : {
          "type" : "string"
        },
        "user_name" : {
          "type" : "string",
          "example" : "Andrew Butko"
        },
        "user_nick" : {
          "type" : "string",
          "example" : "ABT"
        },
        "user_email" : {
          "type" : "string"
        }
      }
    },
    "Domain" : {
      "properties" : {
        "dom_id" : {
          "type" : "integer"
        },
        "uom_id" : {
          "type" : "integer"
        },
        "dom_type" : {
          "type" : "integer"
        },
        "dom_code" : {
          "type" : "string"
        },
        "dom_abbr" : {
          "type" : "string"
        },
        "dom_name" : {
          "type" : "string"
        },
        "el_type_dom" : {
          "type" : "integer"
        },
        "props" : {
          "type" : "string"
        },
        "values" : {
          "type" : "array",
          "items" : {
            "$ref" : "#/definitions/DomainValue"
          }
        }
      }
    },
    "DomainValue" : {
      "properties" : {
        "val_id" : {
          "type" : "integer"
        },
        "dom_id" : {
          "type" : "integer"
        },
        "val_status" : {
          "type" : "string",
          "enum" : [ "N", "A", "C", "R" ]
        },
        "val_code" : {
          "type" : "string"
        },
        "val_abbr" : {
          "type" : "string"
        },
        "val_name" : {
          "type" : "string"
        },
        "met_val_id" : {
          "type" : "integer"
        },
        "val_el_type" : {
          "type" : "integer"
        },
        "props" : {
          "type" : "string"
        }
      }
    }
  }
}